{
  "on_what": "file",
  "do_what": "backup",
  "source" : "backup.py",
  "destination": "dropbox",
  "dropbox_folder": "/backups",
  "sqllite_db_name": "backups.db",
  "dropbox_token_file": "dropbox.token",
  "local_temp_dir" : "/tmp/backup",
  "AES_password": "password",
  "author": "Aseem"
}
